{
  "@context" : "http://schema.org",
  "@type" : "Organization",
  "organizationType" : "Informal collective",
  "name" : "hackerspaces.be",
  "tagLine" : "Services for the Belgian Hackerspaces",
  "homeUrl" : "https://hackerspaces.be",
  "logo" : "https://hackerspaces.be/media/img/favicon.ico",
  "description": "Services for the Belgian Hackerspaces",
  "communicationLanguages": ["en", "nl"],
  "contactUrl": "https://matrix.to/#/@gust:hackerspaces.be",
  "privacyPolicyUrl" : "-",
  "termsOfServiceUrl" : "-",
  "isServiceProvider" : true,
  "foundingDate": "2018",
  "version": "0.0.1",
  "dateCreated": "2018-11-11T11:11:11Z-09",
  "dateModified": "2018-11-11T11:11:11Z-09"
}
